[{"line":1,"elements":[{"line":7,"name":"","description":"","type":"background","keyword":"Background","steps":[{"name":"def urlBase = 'https:\/\/nodejs-qa-training.herokuapp.com\/'","result":{"duration":180800,"status":"passed"},"match":{"location":"karate","arguments":[]},"keyword":"*","line":8,"doc_string":{"content_type":"","value":"21:38:13.514 skipping bootstrap configuration: could not find or read file: classpath:karate-config.js","line":8}},{"name":"def headerContentType = 'application\/json'","result":{"duration":143400,"status":"passed"},"match":{"location":"karate","arguments":[]},"keyword":"*","line":9}]},{"line":11,"name":"Listar usuarios con usuario regular exitoso","description":"","id":"listar-usuarios-con-usuario-regular-exitoso","type":"scenario","keyword":"Scenario","steps":[{"name":"def jsonAutenticacion = call read('autenticar_usuario.feature@ExitosoRegular')","result":{"duration":870837700,"status":"passed"},"match":{"location":"karate","arguments":[]},"keyword":"*","line":12},{"name":"src\/test\/resources\/feature\/autenticar_usuario.feature","result":{"duration":0,"status":"passed"},"match":{"location":"karate","arguments":[]},"keyword":"","line":12},{"name":"def urlBase = 'https:\/\/nodejs-qa-training.herokuapp.com\/'","result":{"duration":1382100,"status":"passed"},"match":{"location":"karate","arguments":[]},"keyword":"> *","line":8},{"name":"def headerContentType = 'application\/json'","result":{"duration":116900,"status":"passed"},"match":{"location":"karate","arguments":[]},"keyword":"> *","line":9},{"name":"json jsonLogin = {\"email\": hernan00@wolox.com.ar, \"password\": Hernan123}","result":{"duration":138400,"status":"passed"},"match":{"location":"karate","arguments":[]},"keyword":"> *","line":13},{"name":"url urlBase + 'users\/sessions\/'","result":{"duration":413600,"status":"passed"},"match":{"location":"karate","arguments":[]},"keyword":"> Given","line":14},{"name":"header Content-Type = headerContentType","result":{"duration":15200,"status":"passed"},"match":{"location":"karate","arguments":[]},"keyword":"> And","line":15},{"name":"request jsonLogin","result":{"duration":38500,"status":"passed"},"match":{"location":"karate","arguments":[]},"keyword":"> And","line":16},{"name":"method post","result":{"duration":829177400,"status":"passed"},"match":{"location":"karate","arguments":[]},"keyword":"> When","line":17,"doc_string":{"content_type":"","value":"21:38:13.529 request:\n1 > POST https:\/\/nodejs-qa-training.herokuapp.com\/users\/sessions\/\n1 > Accept-Encoding: gzip,deflate\n1 > Connection: Keep-Alive\n1 > Content-Length: 56\n1 > Content-Type: application\/json; charset=UTF-8\n1 > Host: nodejs-qa-training.herokuapp.com\n1 > User-Agent: Apache-HttpClient\/4.5.11 (Java\/1.8.0_171)\n{\"email\":\"hernan00@wolox.com.ar\",\"password\":\"Hernan123\"}\n\n21:38:14.368 response time in milliseconds: 824,94\n1 < 200\n1 < Authorization: eyJ0eXAiOiJKV1QiLCJhbGciOiJIUzI1NiJ9.eyJ1c2VySWQiOjI1OCwicm9sZSI6InJlZ3VsYXIiLCJpYXQiOjE2MDAxMzc0OTQuNzgsImV4cCI6MTYwMDEzOTI5NC43OH0.cMA03KkYZpRWR6PGWoKN_aHMmc1kn32VOJHHMnxTesg\n1 < Connection: keep-alive\n1 < Content-Length: 50\n1 < Content-Type: application\/json; charset=utf-8\n1 < Date: Tue, 15 Sep 2020 02:38:14 GMT\n1 < Etag: W\/\"32-97jQv8fcPESAY0og0CnXrDA3UUw\"\n1 < Server: Cowboy\n1 < Via: 1.1 vegur\n1 < X-Powered-By: Express\n{\"user_id\":258,\"token_expires_at\":\"1600139294.78\"}","line":17}},{"name":"status 200","result":{"duration":15300,"status":"passed"},"match":{"location":"karate","arguments":[]},"keyword":"> Then","line":18},{"name":"print response","result":{"duration":854800,"status":"passed"},"match":{"location":"karate","arguments":[]},"keyword":"> *","line":19,"doc_string":{"content_type":"","value":"21:38:14.370 [print] {\n  \"token_expires_at\": \"1600139294.78\",\n  \"user_id\": 258\n}","line":19}},{"name":"print responseHeaders['Authorization'][0]","result":{"duration":1700600,"status":"passed"},"match":{"location":"karate","arguments":[]},"keyword":"> *","line":20,"doc_string":{"content_type":"","value":"21:38:14.372 [print] eyJ0eXAiOiJKV1QiLCJhbGciOiJIUzI1NiJ9.eyJ1c2VySWQiOjI1OCwicm9sZSI6InJlZ3VsYXIiLCJpYXQiOjE2MDAxMzc0OTQuNzgsImV4cCI6MTYwMDEzOTI5NC43OH0.cMA03KkYZpRWR6PGWoKN_aHMmc1kn32VOJHHMnxTesg","line":20}},{"name":"match response.user_id == \"#number\"","result":{"duration":1205400,"status":"passed"},"match":{"location":"karate","arguments":[]},"keyword":"> And","line":21},{"name":"match response contains read('..\/json\/formato_autenticacion.json')","result":{"duration":14624600,"status":"passed"},"match":{"location":"karate","arguments":[]},"keyword":"> And","line":22},{"name":"match responseHeaders['Authorization'][0] == \"#notnull\"","result":{"duration":506300,"status":"passed"},"match":{"location":"karate","arguments":[]},"keyword":"> And","line":23},{"name":"def varAuthorization = jsonAutenticacion.responseHeaders.Authorization[0]","result":{"duration":970500,"status":"passed"},"match":{"location":"karate","arguments":[]},"keyword":"*","line":13},{"name":"url urlBase + 'users'","result":{"duration":3435300,"status":"passed"},"match":{"location":"karate","arguments":[]},"keyword":"Given","line":14},{"name":"header Content-Type = headerContentType","result":{"duration":17400,"status":"passed"},"match":{"location":"karate","arguments":[]},"keyword":"And","line":15},{"name":"header Authorization = varAuthorization","result":{"duration":7500,"status":"passed"},"match":{"location":"karate","arguments":[]},"keyword":"And","line":16},{"name":"method get","result":{"duration":601964800,"status":"passed"},"match":{"location":"karate","arguments":[]},"keyword":"When","line":17,"doc_string":{"content_type":"","value":"21:38:14.402 request:\n1 > GET https:\/\/nodejs-qa-training.herokuapp.com\/users\n1 > Accept-Encoding: gzip,deflate\n1 > Authorization: eyJ0eXAiOiJKV1QiLCJhbGciOiJIUzI1NiJ9.eyJ1c2VySWQiOjI1OCwicm9sZSI6InJlZ3VsYXIiLCJpYXQiOjE2MDAxMzc0OTQuNzgsImV4cCI6MTYwMDEzOTI5NC43OH0.cMA03KkYZpRWR6PGWoKN_aHMmc1kn32VOJHHMnxTesg\n1 > Connection: Keep-Alive\n1 > Content-Type: application\/json\n1 > Host: nodejs-qa-training.herokuapp.com\n1 > User-Agent: Apache-HttpClient\/4.5.11 (Java\/1.8.0_171)\n\n21:38:14.996 response time in milliseconds: 599,82\n1 < 200\n1 < Connection: keep-alive\n1 < Content-Length: 1066\n1 < Content-Type: application\/json; charset=utf-8\n1 < Date: Tue, 15 Sep 2020 02:38:15 GMT\n1 < Etag: W\/\"42a-uh0P4hR7oXBZOT8dnfCGelVBF7Q\"\n1 < Server: Cowboy\n1 < Via: 1.1 vegur\n1 < X-Powered-By: Express\n{\"total_count\":39,\"count\":10,\"total_pages\":4,\"limit\":10,\"offset\":0,\"current_page\":1,\"page\":[{\"first_name\":\"Hernan\",\"last_name\":\"Garcia98\",\"email\":\"hernan003@wolox.com.ar\",\"role\":\"regular\"},{\"first_name\":\"Hernan\",\"last_name\":\"Garcia\",\"email\":\"hernan000@wolox.com.ar\",\"role\":\"regular\"},{\"first_name\":\"Hernan\",\"last_name\":\"Garcia\",\"email\":\"h6@wolox.com.ar\",\"role\":\"regular\"},{\"first_name\":\"regular\",\"last_name\":\"regular\",\"email\":\"regular@wolox.com.ar\",\"role\":\"regular\"},{\"first_name\":\"Jose Antonio\",\"last_name\":\"Bermudez\",\"email\":\"jose.beruda@wolox.com.ar\",\"role\":\"regular\"},{\"first_name\":\"Juan\",\"last_name\":\"Perez\",\"email\":\"jperez@wolox.com.ar\",\"role\":\"regular\"},{\"first_name\":\"Hernan\",\"last_name\":\"Garcia\",\"email\":\"h7@wolox.com.ar\",\"role\":\"regular\"},{\"first_name\":\"Hernan01\",\"last_name\":\"Garcia\",\"email\":\"hernan0x2@wolox.com.ar\",\"role\":\"regular\"},{\"first_name\":\"Juan\",\"last_name\":\"Per2ez\",\"email\":\"jperwez@wolox.com.ar\",\"role\":\"regular\"},{\"first_name\":\"Ju4an\",\"last_name\":\"Per2ez\",\"email\":\"jperwetz@wolox.com.ar\",\"role\":\"regular\"}],\"previous_page\":null,\"next_page\":2}","line":17}},{"name":"status 200","result":{"duration":3800,"status":"passed"},"match":{"location":"karate","arguments":[]},"keyword":"Then","line":18},{"name":"def objeto = read('..\/json\/formato_usuarios.json')","result":{"duration":9162200,"status":"passed"},"match":{"location":"karate","arguments":[]},"keyword":"*","line":19},{"name":"match each response.page contains objeto.page[0]","result":{"duration":21259600,"status":"passed"},"match":{"location":"karate","arguments":[]},"keyword":"And","line":20},{"name":"match response == read('..\/json\/formato_paginacion.json')","result":{"duration":6789800,"status":"passed"},"match":{"location":"karate","arguments":[]},"keyword":"And","line":21}]},{"line":7,"name":"","description":"","type":"background","keyword":"Background","steps":[{"name":"def urlBase = 'https:\/\/nodejs-qa-training.herokuapp.com\/'","result":{"duration":135000,"status":"passed"},"match":{"location":"karate","arguments":[]},"keyword":"*","line":8,"doc_string":{"content_type":"","value":"21:38:14.871 skipping bootstrap configuration: could not find or read file: classpath:karate-config.js","line":8}},{"name":"def headerContentType = 'application\/json'","result":{"duration":90000,"status":"passed"},"match":{"location":"karate","arguments":[]},"keyword":"*","line":9}]},{"line":23,"name":"Listar usuarios con usuario administrador exitoso","description":"","id":"listar-usuarios-con-usuario-administrador-exitoso","type":"scenario","keyword":"Scenario","steps":[{"name":"def jsonAutenticacion = call read('autenticar_usuario.feature@ExitosoAdministrador')","result":{"duration":721381600,"status":"passed"},"match":{"location":"karate","arguments":[]},"keyword":"*","line":24},{"name":"src\/test\/resources\/feature\/autenticar_usuario.feature","result":{"duration":0,"status":"passed"},"match":{"location":"karate","arguments":[]},"keyword":"","line":24},{"name":"def urlBase = 'https:\/\/nodejs-qa-training.herokuapp.com\/'","result":{"duration":1177100,"status":"passed"},"match":{"location":"karate","arguments":[]},"keyword":"> *","line":8},{"name":"def headerContentType = 'application\/json'","result":{"duration":87100,"status":"passed"},"match":{"location":"karate","arguments":[]},"keyword":"> *","line":9},{"name":"json jsonLogin = {\"email\": admin@wolox.com.ar, \"password\": candidatoWolox2020}","result":{"duration":175000,"status":"passed"},"match":{"location":"karate","arguments":[]},"keyword":"> *","line":31},{"name":"url urlBase + 'users\/sessions\/'","result":{"duration":405400,"status":"passed"},"match":{"location":"karate","arguments":[]},"keyword":"> Given","line":32},{"name":"header Content-Type = headerContentType","result":{"duration":11900,"status":"passed"},"match":{"location":"karate","arguments":[]},"keyword":"> And","line":33},{"name":"request jsonLogin","result":{"duration":4400,"status":"passed"},"match":{"location":"karate","arguments":[]},"keyword":"> And","line":34},{"name":"method post","result":{"duration":674098500,"status":"passed"},"match":{"location":"karate","arguments":[]},"keyword":"> When","line":35,"doc_string":{"content_type":"","value":"21:38:14.902 request:\n1 > POST https:\/\/nodejs-qa-training.herokuapp.com\/users\/sessions\/\n1 > Accept-Encoding: gzip,deflate\n1 > Connection: Keep-Alive\n1 > Content-Length: 62\n1 > Content-Type: application\/json; charset=UTF-8\n1 > Host: nodejs-qa-training.herokuapp.com\n1 > User-Agent: Apache-HttpClient\/4.5.11 (Java\/1.8.0_171)\n{\"email\":\"admin@wolox.com.ar\",\"password\":\"candidatoWolox2020\"}\n\n21:38:15.575 response time in milliseconds: 670,95\n1 < 200\n1 < Authorization: eyJ0eXAiOiJKV1QiLCJhbGciOiJIUzI1NiJ9.eyJ1c2VySWQiOjE0Niwicm9sZSI6ImFkbWluIiwiaWF0IjoxNjAwMTM3NDk1Ljk3NywiZXhwIjoxNjAwMTM5Mjk1Ljk3N30.0UB2SrKSpX7SW-qtznKS30aKJO8Gyf-cXynvVXnp6mc\n1 < Connection: keep-alive\n1 < Content-Length: 51\n1 < Content-Type: application\/json; charset=utf-8\n1 < Date: Tue, 15 Sep 2020 02:38:15 GMT\n1 < Etag: W\/\"33-E6YN8Nz0tU9Sy8voi5pCr6ciI1I\"\n1 < Server: Cowboy\n1 < Via: 1.1 vegur\n1 < X-Powered-By: Express\n{\"user_id\":146,\"token_expires_at\":\"1600139295.977\"}","line":35}},{"name":"status 200","result":{"duration":13800,"status":"passed"},"match":{"location":"karate","arguments":[]},"keyword":"> Then","line":36},{"name":"print response","result":{"duration":683000,"status":"passed"},"match":{"location":"karate","arguments":[]},"keyword":"> *","line":37,"doc_string":{"content_type":"","value":"21:38:15.576 [print] {\n  \"token_expires_at\": \"1600139295.977\",\n  \"user_id\": 146\n}","line":37}},{"name":"print responseHeaders['Authorization'][0]","result":{"duration":1246700,"status":"passed"},"match":{"location":"karate","arguments":[]},"keyword":"> *","line":38,"doc_string":{"content_type":"","value":"21:38:15.578 [print] eyJ0eXAiOiJKV1QiLCJhbGciOiJIUzI1NiJ9.eyJ1c2VySWQiOjE0Niwicm9sZSI6ImFkbWluIiwiaWF0IjoxNjAwMTM3NDk1Ljk3NywiZXhwIjoxNjAwMTM5Mjk1Ljk3N30.0UB2SrKSpX7SW-qtznKS30aKJO8Gyf-cXynvVXnp6mc","line":38}},{"name":"match response.user_id == \"#number\"","result":{"duration":924300,"status":"passed"},"match":{"location":"karate","arguments":[]},"keyword":"> And","line":39},{"name":"match response contains read('..\/json\/formato_autenticacion.json')","result":{"duration":22113800,"status":"passed"},"match":{"location":"karate","arguments":[]},"keyword":"> And","line":40},{"name":"match responseHeaders['Authorization'][0] == \"#notnull\"","result":{"duration":608600,"status":"passed"},"match":{"location":"karate","arguments":[]},"keyword":"> And","line":41},{"name":"def varAuthorization = jsonAutenticacion.responseHeaders.Authorization[0]","result":{"duration":534800,"status":"passed"},"match":{"location":"karate","arguments":[]},"keyword":"*","line":25},{"name":"url urlBase + 'users'","result":{"duration":400500,"status":"passed"},"match":{"location":"karate","arguments":[]},"keyword":"Given","line":26},{"name":"header Content-Type = headerContentType","result":{"duration":17600,"status":"passed"},"match":{"location":"karate","arguments":[]},"keyword":"And","line":27},{"name":"header Authorization = varAuthorization","result":{"duration":7600,"status":"passed"},"match":{"location":"karate","arguments":[]},"keyword":"And","line":28},{"name":"method get","result":{"duration":529522500,"status":"passed"},"match":{"location":"karate","arguments":[]},"keyword":"When","line":29,"doc_string":{"content_type":"","value":"21:38:15.609 request:\n1 > GET https:\/\/nodejs-qa-training.herokuapp.com\/users\n1 > Accept-Encoding: gzip,deflate\n1 > Authorization: eyJ0eXAiOiJKV1QiLCJhbGciOiJIUzI1NiJ9.eyJ1c2VySWQiOjE0Niwicm9sZSI6ImFkbWluIiwiaWF0IjoxNjAwMTM3NDk1Ljk3NywiZXhwIjoxNjAwMTM5Mjk1Ljk3N30.0UB2SrKSpX7SW-qtznKS30aKJO8Gyf-cXynvVXnp6mc\n1 > Connection: Keep-Alive\n1 > Content-Type: application\/json\n1 > Host: nodejs-qa-training.herokuapp.com\n1 > User-Agent: Apache-HttpClient\/4.5.11 (Java\/1.8.0_171)\n\n21:38:16.136 response time in milliseconds: 525,89\n1 < 200\n1 < Connection: keep-alive\n1 < Content-Length: 1066\n1 < Content-Type: application\/json; charset=utf-8\n1 < Date: Tue, 15 Sep 2020 02:38:16 GMT\n1 < Etag: W\/\"42a-c8RjJtpcc5Eh7BU0jNlFld\/OiZA\"\n1 < Server: Cowboy\n1 < Via: 1.1 vegur\n1 < X-Powered-By: Express\n{\"total_count\":40,\"count\":10,\"total_pages\":4,\"limit\":10,\"offset\":0,\"current_page\":1,\"page\":[{\"first_name\":\"Hernan\",\"last_name\":\"Garcia98\",\"email\":\"hernan003@wolox.com.ar\",\"role\":\"regular\"},{\"first_name\":\"Hernan\",\"last_name\":\"Garcia\",\"email\":\"hernan000@wolox.com.ar\",\"role\":\"regular\"},{\"first_name\":\"Hernan\",\"last_name\":\"Garcia\",\"email\":\"h6@wolox.com.ar\",\"role\":\"regular\"},{\"first_name\":\"regular\",\"last_name\":\"regular\",\"email\":\"regular@wolox.com.ar\",\"role\":\"regular\"},{\"first_name\":\"Jose Antonio\",\"last_name\":\"Bermudez\",\"email\":\"jose.beruda@wolox.com.ar\",\"role\":\"regular\"},{\"first_name\":\"Juan\",\"last_name\":\"Perez\",\"email\":\"jperez@wolox.com.ar\",\"role\":\"regular\"},{\"first_name\":\"Hernan\",\"last_name\":\"Garcia\",\"email\":\"h7@wolox.com.ar\",\"role\":\"regular\"},{\"first_name\":\"Hernan01\",\"last_name\":\"Garcia\",\"email\":\"hernan0x2@wolox.com.ar\",\"role\":\"regular\"},{\"first_name\":\"Juan\",\"last_name\":\"Per2ez\",\"email\":\"jperwez@wolox.com.ar\",\"role\":\"regular\"},{\"first_name\":\"Ju4an\",\"last_name\":\"Per2ez\",\"email\":\"jperwetz@wolox.com.ar\",\"role\":\"regular\"}],\"previous_page\":null,\"next_page\":2}","line":29}},{"name":"status 200","result":{"duration":8700,"status":"passed"},"match":{"location":"karate","arguments":[]},"keyword":"Then","line":30},{"name":"def objeto = read('..\/json\/formato_usuarios.json')","result":{"duration":14077100,"status":"passed"},"match":{"location":"karate","arguments":[]},"keyword":"*","line":31},{"name":"match each response.page contains objeto.page[0]","result":{"duration":3534500,"status":"passed"},"match":{"location":"karate","arguments":[]},"keyword":"And","line":32},{"name":"match response == read('..\/json\/formato_paginacion.json')","result":{"duration":15603000,"status":"passed"},"match":{"location":"karate","arguments":[]},"keyword":"And","line":33}]},{"line":7,"name":"","description":"","type":"background","keyword":"Background","steps":[{"name":"def urlBase = 'https:\/\/nodejs-qa-training.herokuapp.com\/'","result":{"duration":120300,"status":"passed"},"match":{"location":"karate","arguments":[]},"keyword":"*","line":8,"doc_string":{"content_type":"","value":"21:38:14.964 skipping bootstrap configuration: could not find or read file: classpath:karate-config.js","line":8}},{"name":"def headerContentType = 'application\/json'","result":{"duration":79000,"status":"passed"},"match":{"location":"karate","arguments":[]},"keyword":"*","line":9}]},{"line":35,"name":"Listar usuarios con usuario regular escenario alterno","description":"","id":"listar-usuarios-con-usuario-regular-escenario-alterno","type":"scenario","keyword":"Scenario","steps":[{"name":"def jsonAutenticacion = call read('autenticar_usuario.feature@ExitosoRegular')","result":{"duration":777113200,"status":"passed"},"match":{"location":"karate","arguments":[]},"keyword":"*","line":36},{"name":"src\/test\/resources\/feature\/autenticar_usuario.feature","result":{"duration":0,"status":"passed"},"match":{"location":"karate","arguments":[]},"keyword":"","line":36},{"name":"def urlBase = 'https:\/\/nodejs-qa-training.herokuapp.com\/'","result":{"duration":1151200,"status":"passed"},"match":{"location":"karate","arguments":[]},"keyword":"> *","line":8},{"name":"def headerContentType = 'application\/json'","result":{"duration":84200,"status":"passed"},"match":{"location":"karate","arguments":[]},"keyword":"> *","line":9},{"name":"json jsonLogin = {\"email\": hernan00@wolox.com.ar, \"password\": Hernan123}","result":{"duration":178900,"status":"passed"},"match":{"location":"karate","arguments":[]},"keyword":"> *","line":13},{"name":"url urlBase + 'users\/sessions\/'","result":{"duration":244100,"status":"passed"},"match":{"location":"karate","arguments":[]},"keyword":"> Given","line":14},{"name":"header Content-Type = headerContentType","result":{"duration":11000,"status":"passed"},"match":{"location":"karate","arguments":[]},"keyword":"> And","line":15},{"name":"request jsonLogin","result":{"duration":3900,"status":"passed"},"match":{"location":"karate","arguments":[]},"keyword":"> And","line":16},{"name":"method post","result":{"duration":730252000,"status":"passed"},"match":{"location":"karate","arguments":[]},"keyword":"> When","line":17,"doc_string":{"content_type":"","value":"21:38:14.980 request:\n1 > POST https:\/\/nodejs-qa-training.herokuapp.com\/users\/sessions\/\n1 > Accept-Encoding: gzip,deflate\n1 > Connection: Keep-Alive\n1 > Content-Length: 56\n1 > Content-Type: application\/json; charset=UTF-8\n1 > Host: nodejs-qa-training.herokuapp.com\n1 > User-Agent: Apache-HttpClient\/4.5.11 (Java\/1.8.0_171)\n{\"email\":\"hernan00@wolox.com.ar\",\"password\":\"Hernan123\"}\n\n21:38:15.708 response time in milliseconds: 726,80\n1 < 200\n1 < Authorization: eyJ0eXAiOiJKV1QiLCJhbGciOiJIUzI1NiJ9.eyJ1c2VySWQiOjI1OCwicm9sZSI6InJlZ3VsYXIiLCJpYXQiOjE2MDAxMzc0OTYuMTA0LCJleHAiOjE2MDAxMzkyOTYuMTA0fQ.GZTLU0WZ-uOxKCU5F4jbQwIn1rUKh0AF32F-c0AOmko\n1 < Connection: keep-alive\n1 < Content-Length: 51\n1 < Content-Type: application\/json; charset=utf-8\n1 < Date: Tue, 15 Sep 2020 02:38:16 GMT\n1 < Etag: W\/\"33-78zOQlEtlINRgdPE7VmtMqtw52w\"\n1 < Server: Cowboy\n1 < Via: 1.1 vegur\n1 < X-Powered-By: Express\n{\"user_id\":258,\"token_expires_at\":\"1600139296.104\"}","line":17}},{"name":"status 200","result":{"duration":12600,"status":"passed"},"match":{"location":"karate","arguments":[]},"keyword":"> Then","line":18},{"name":"print response","result":{"duration":684600,"status":"passed"},"match":{"location":"karate","arguments":[]},"keyword":"> *","line":19,"doc_string":{"content_type":"","value":"21:38:15.710 [print] {\n  \"token_expires_at\": \"1600139296.104\",\n  \"user_id\": 258\n}","line":19}},{"name":"print responseHeaders['Authorization'][0]","result":{"duration":1638400,"status":"passed"},"match":{"location":"karate","arguments":[]},"keyword":"> *","line":20,"doc_string":{"content_type":"","value":"21:38:15.711 [print] eyJ0eXAiOiJKV1QiLCJhbGciOiJIUzI1NiJ9.eyJ1c2VySWQiOjI1OCwicm9sZSI6InJlZ3VsYXIiLCJpYXQiOjE2MDAxMzc0OTYuMTA0LCJleHAiOjE2MDAxMzkyOTYuMTA0fQ.GZTLU0WZ-uOxKCU5F4jbQwIn1rUKh0AF32F-c0AOmko","line":20}},{"name":"match response.user_id == \"#number\"","result":{"duration":892300,"status":"passed"},"match":{"location":"karate","arguments":[]},"keyword":"> And","line":21},{"name":"match response contains read('..\/json\/formato_autenticacion.json')","result":{"duration":19265400,"status":"passed"},"match":{"location":"karate","arguments":[]},"keyword":"> And","line":22},{"name":"match responseHeaders['Authorization'][0] == \"#notnull\"","result":{"duration":881700,"status":"passed"},"match":{"location":"karate","arguments":[]},"keyword":"> And","line":23},{"name":"url urlBase + 'users'","result":{"duration":1058400,"status":"passed"},"match":{"location":"karate","arguments":[]},"keyword":"Given","line":37},{"name":"header Content-Type = headerContentType","result":{"duration":42800,"status":"passed"},"match":{"location":"karate","arguments":[]},"keyword":"And","line":38},{"name":"header Authorization = 'kadjADAhOLAIyysfhkalsdHKLsdASDADGDFGJD'","result":{"duration":310700,"status":"passed"},"match":{"location":"karate","arguments":[]},"keyword":"And","line":39},{"name":"method get","result":{"duration":520641200,"status":"passed"},"match":{"location":"karate","arguments":[]},"keyword":"When","line":40,"doc_string":{"content_type":"","value":"21:38:15.750 request:\n1 > GET https:\/\/nodejs-qa-training.herokuapp.com\/users\n1 > Accept-Encoding: gzip,deflate\n1 > Authorization: kadjADAhOLAIyysfhkalsdHKLsdASDADGDFGJD\n1 > Connection: Keep-Alive\n1 > Content-Type: application\/json\n1 > Host: nodejs-qa-training.herokuapp.com\n1 > User-Agent: Apache-HttpClient\/4.5.11 (Java\/1.8.0_171)\n\n21:38:16.267 response time in milliseconds: 516,08\n1 < 401\n1 < Connection: keep-alive\n1 < Content-Length: 109\n1 < Content-Type: application\/json; charset=utf-8\n1 < Date: Tue, 15 Sep 2020 02:38:16 GMT\n1 < Etag: W\/\"6d-\/c8kOgMSl2I1ndXJjVA0UgLoGWA\"\n1 < Server: Cowboy\n1 < Via: 1.1 vegur\n1 < X-Powered-By: Express\n{\"errors\":[{\"code\":\"authentication_error\",\"message\":\"Invalid token\"}],\"timestamp\":\"2020-09-15T02:38:16.700Z\"}","line":40}},{"name":"status 401","result":{"duration":3700,"status":"passed"},"match":{"location":"karate","arguments":[]},"keyword":"Then","line":41},{"name":"match response contains read('..\/json\/formato_error.json')","result":{"duration":5561600,"status":"passed"},"match":{"location":"karate","arguments":[]},"keyword":"And","line":42}]}],"name":"src\/test\/resources\/feature\/listar_usuarios.feature","description":"Prueba listar usuarios\nComo usurio de la aplicacion\r\n  Quiero realizar una consulta a los usuarios creados\r\n  Para ver los usuarios","id":"prueba-listar-usuarios","keyword":"Feature","uri":"src\/test\/resources\/feature\/listar_usuarios.feature"}]